SPI_testing/SPI_testing.sim/sim_1/behav/xsim/dump.vcd
$date
   Tue Nov 26 17:58:06 2024
$end
$version
  2022.2
$end
$timescale
  1ps
$end
$scope module testbench_spi $end
$var reg 32 ! test_cycles [31:0] $end
$var reg 1 " chip_clock $end
$var reg 1 # SIGNAL_CLOCK $end
$var reg 1 $ SIGNAL_SS $end
$var reg 1 % SIGNAL_DATA $end
$var reg 1 & reset_spi $end
$var reg 1 ' spi_ready $end
$var reg 1 ( reset_spi2 $end
$var reg 1 ) spi_ready2 $end
$var reg 1 * proc_word $end
$var reg 1 + proc_word2 $end
$var reg 1 , process_next_word $end
$var reg 1 - process_next_word2 $end
$var reg 8 . data [7:0] $end
$var reg 8 / recv_tmp [7:0] $end
$var reg 8 0 recv_data [7:0] $end
$var reg 1 1 test_signal_control $end
$var reg 1 2 reset_div $end
$var reg 1 3 divider_ready $end
$var reg 1 4 divided_master_clock $end
$scope module clkdiv $end
$var wire 1 5 clk_in $end
$var reg 1 4 clk_out $end
$var wire 1 6 do_reset $end
$var reg 1 3 is_ready $end
$var reg 4 7 divcounter [3:0] $end
$upscope $end
$scope module spi_master $end
$var wire 1 8 master_clock $end
$var reg 1 # SCLK_OUT $end
$var wire 1 9 SCLK_IN $end
$var reg 1 $ SS_OUT $end
$var wire 1 : SS_IN $end
$var reg 1 % OUTPUT_SIGNAL $end
$var reg 1 * processing_word $end
$var wire 1 ; process_next_word $end
$var wire 8 < data_word_send [7:0] $end
$var wire 1 = INPUT_SIGNAL $end
$var reg 8 > data_word_recv [7:0] $end
$var wire 1 ? do_reset $end
$var reg 1 ' is_ready $end
$var reg 1 @ is_ready_logic $end
$var reg 1 A activate_ss $end
$var reg 1 B activate_sclk $end
$var reg 1 C status_ignore_first_edge $end
$var reg 1 D rising_sclk_edge $end
$var reg 1 E falling_sclk_edge $end
$var reg 8 F data_word_recv_logic [7:0] $end
$var reg 7 G bit_counter [6:0] $end
$var reg 3 H spi_status [2:0] $end
$var reg 1 I delay_pol $end
$var reg 1 J get_number_edge $end
$var reg 1 K switch_number_edge $end
$var reg 1 L SS $end
$scope module spi_edge_pos $end
$var wire 1 9 sig $end
$var wire 1 8 clk $end
$var reg 1 D pe $end
$var reg 1 M sig_dly $end
$upscope $end
$scope module spi_edge_neg $end
$var wire 1 9 sig $end
$var wire 1 8 clk $end
$var reg 1 E ne $end
$var reg 1 N sig_dly $end
$upscope $end
$upscope $end
$scope module spi_slave $end
$var wire 1 O master_clock $end
$var reg 1 P SCLK_OUT $end
$var wire 1 Q SCLK_IN $end
$var reg 1 R SS_OUT $end
$var wire 1 S SS_IN $end
$var reg 1 T OUTPUT_SIGNAL $end
$var reg 1 + processing_word $end
$var wire 1 U process_next_word $end
$var wire 8 V data_word_send [7:0] $end
$var wire 1 W INPUT_SIGNAL $end
$var reg 8 / data_word_recv [7:0] $end
$var wire 1 X do_reset $end
$var reg 1 ) is_ready $end
$var reg 1 Y is_ready_logic $end
$var reg 1 Z activate_ss $end
$var reg 1 [ activate_sclk $end
$var reg 1 \ status_ignore_first_edge $end
$var reg 1 ] rising_sclk_edge $end
$var reg 1 ^ falling_sclk_edge $end
$var reg 8 _ data_word_recv_logic [7:0] $end
$var reg 7 ` bit_counter [6:0] $end
$var reg 3 a spi_status [2:0] $end
$var reg 1 b delay_pol $end
$var reg 1 c get_number_edge $end
$var reg 1 d switch_number_edge $end
$var reg 1 e SS $end
$scope module spi_edge_pos $end
$var wire 1 Q sig $end
$var wire 1 O clk $end
$var reg 1 ] pe $end
$var reg 1 f sig_dly $end
$upscope $end
$scope module spi_edge_neg $end
$var wire 1 Q sig $end
$var wire 1 O clk $end
$var reg 1 ^ ne $end
$var reg 1 g sig_dly $end
$upscope $end
$upscope $end
$upscope $end
$enddefinitions $end
#0
$dumpvars
b1 !
1"
0#
1$
0%
1&
1'
1(
1)
0*
0+
0,
0-
b0 .
bx /
bx 0
x1
12
13
04
15
16
b0 7
18
09
z:
0;
b0 <
z=
bx >
1?
1@
0A
0B
0C
0D
xE
bx F
b111 G
b0 H
1I
0J
xK
1L
xM
xN
1O
xP
0Q
xR
1S
0T
0U
bz V
0W
1X
1Y
0Z
0[
0\
0]
x^
bx _
b111 `
b0 a
1b
0c
xd
1e
xf
xg
$end
#31250
b10 !
0"
0%
0&
0(
1,
1-
b1 .
bx 0
02
05
06
08
1;
b1 <
0?
0O
1U
0X
#62500
b11 !
1"
0#
0$
0%
0&
0(
1*
1+
1,
1-
02
15
b1 7
18
1A
1B
0C
0D
0E
b111 H
0K
0L
0M
0N
1O
0S
zT
1Z
1[
0\
0]
0^
b111 a
0d
0e
0f
0g
#93750
b100 !
0"
0&
0(
0,
0-
02
05
08
0;
0O
0U
#125000
b101 !
1"
0&
0(
02
15
b10 7
18
0M
0N
1O
0f
0g
#156250
b110 !
0"
0&
0(
02
05
08
0O
#187500
b111 !
1"
0&
0(
02
15
b11 7
18
0M
0N
1O
0f
0g
#218750
b1000 !
0"
0&
0(
02
05
08
0O
#250000
b1001 !
1"
0&
0(
02
15
b100 7
18
0M
0N
1O
0f
0g
#281250
b1010 !
0"
0&
0(
02
05
08
0O
#312500
b1011 !
1"
0&
0(
02
15
b101 7
18
0M
0N
1O
0f
0g
#343750
b1100 !
0"
0&
0(
02
05
08
0O
#375000
b1101 !
1"
0&
0(
02
15
b110 7
18
0M
0N
1O
0f
0g
#406250
b1110 !
0"
0&
0(
02
05
08
0O
#437500
b1111 !
1"
0&
0(
02
15
b111 7
18
0M
0N
1O
0f
0g
#468750
b10000 !
0"
0&
0(
02
05
08
0O
#500000
b10001 !
1"
1#
0&
0(
02
14
15
b1000 7
18
19
1D
0E
0I
1J
0M
0N
1O
1Q
1]
0^
0b
1c
0f
0g
#531250
b10010 !
0"
0&
0(
02
05
08
0O
#562500
b10011 !
1"
0&
0(
b0xxxxxxx /
02
15
b1001 7
18
bzxxxxxxx >
0D
0E
bzxxxxxxx F
0J
1M
1N
1O
0]
0^
b0xxxxxxx _
0c
1f
1g
#593750
b10100 !
0"
0&
0(
02
05
08
0O
#625000
b10101 !
1"
0&
0(
02
15
b1010 7
18
1M
1N
1O
1f
1g
#656250
b10110 !
0"
0&
0(
02
05
08
0O
#687500
b10111 !
1"
0&
0(
02
15
b1011 7
18
1M
1N
1O
1f
1g
#718750
b11000 !
0"
0&
0(
02
05
08
0O
#750000
b11001 !
1"
0&
0(
02
15
b1100 7
18
1M
1N
1O
1f
1g
#781250
b11010 !
0"
0&
0(
02
05
08
0O
#812500
b11011 !
1"
0&
0(
02
15
b1101 7
18
1M
1N
1O
1f
1g
#843750
b11100 !
0"
0&
0(
02
05
08
0O
#875000
b11101 !
1"
0&
0(
02
15
b1110 7
18
1M
1N
1O
1f
1g
#906250
b11110 !
0"
0&
0(
02
05
08
0O
#937500
b11111 !
1"
0&
0(
02
15
b1111 7
18
1M
1N
1O
1f
1g
#968750
b100000 !
0"
0&
0(
02
05
08
0O
#1000000
b100001 !
1"
0#
0&
0(
02
04
15
b0 7
18
09
0D
1E
1I
1K
1M
1N
1O
0Q
0]
1^
1b
1d
1f
1g
#1031250
b100010 !
0"
0&
0(
02
05
08
0O
#1062500
b100011 !
1"
0%
0&
0(
02
15
b1 7
18
0D
0E
b110 G
0K
0M
0N
1O
zT
0]
0^
b110 `
0d
0f
0g
#1093750
b100100 !
0"
0&
0(
02
05
08
0O
#1125000
b100101 !
1"
0&
0(
02
15
b10 7
18
0M
0N
1O
0f
0g
#1156250
b100110 !
0"
0&
0(
02
05
08
0O
#1187500
b100111 !
1"
0&
0(
02
15
b11 7
18
0M
0N
1O
0f
0g
#1218750
b101000 !
0"
0&
0(
02
05
08
0O
#1250000
b101001 !
1"
0&
0(
02
15
b100 7
18
0M
0N
1O
0f
0g
#1281250
b101010 !
0"
0&
0(
02
05
08
0O
#1312500
b101011 !
1"
0&
0(
02
15
b101 7
18
0M
0N
1O
0f
0g
#1343750
b101100 !
0"
0&
0(
02
05
08
0O
#1375000
b101101 !
1"
0&
0(
02
15
b110 7
18
0M
0N
1O
0f
0g
#1406250
b101110 !
0"
0&
0(
02
05
08
0O
#1437500
b101111 !
1"
0&
0(
02
15
b111 7
18
0M
0N
1O
0f
0g
#1468750
b110000 !
0"
0&
0(
02
05
08
0O
#1500000
b110001 !
1"
1#
0&
0(
02
14
15
b1000 7
18
19
1D
0E
0I
1J
0M
0N
1O
1Q
1]
0^
0b
1c
0f
0g
#1531250
b110010 !
0"
0&
0(
02
05
08
0O
#1562500
b110011 !
1"
0&
0(
b0xxxxxx /
02
15
b1001 7
18
bzxxxxxx >
0D
0E
bzxxxxxx F
0J
1M
1N
1O
0]
0^
b0xxxxxx _
0c
1f
1g
#1593750
b110100 !
0"
0&
0(
02
05
08
0O
#1625000
b110101 !
1"
0&
0(
02
15
b1010 7
18
1M
1N
1O
1f
1g
#1656250
b110110 !
0"
0&
0(
02
05
08
0O
#1687500
b110111 !
1"
0&
0(
02
15
b1011 7
18
1M
1N
1O
1f
1g
#1718750
b111000 !
0"
0&
0(
02
05
08
0O
#1750000
b111001 !
1"
0&
0(
02
15
b1100 7
18
1M
1N
1O
1f
1g
#1781250
b111010 !
0"
0&
0(
02
05
08
0O
#1812500
b111011 !
1"
0&
0(
02
15
b1101 7
18
1M
1N
1O
1f
1g
#1843750
b111100 !
0"
0&
0(
02
05
08
0O
#1875000
b111101 !
1"
0&
0(
02
15
b1110 7
18
1M
1N
1O
1f
1g
#1906250
b111110 !
0"
0&
0(
02
05
08
0O
#1937500
b111111 !
1"
0&
0(
02
15
b1111 7
18
1M
1N
1O
1f
1g
#1968750
b1000000 !
0"
0&
0(
02
05
08
0O
#2000000
b1000001 !
1"
0#
0&
0(
02
04
15
b0 7
18
09
0D
1E
1I
1K
1M
1N
1O
0Q
0]
1^
1b
1d
1f
1g
#2031250
b1000010 !
0"
0&
0(
02
05
08
0O
#2062500
b1000011 !
1"
0%
0&
0(
02
15
b1 7
18
0D
0E
b101 G
0K
0M
0N
1O
zT
0]
0^
b101 `
0d
0f
0g
#2093750
b1000100 !
0"
0&
0(
02
05
08
0O
#2125000
b1000101 !
1"
0&
0(
02
15
b10 7
18
0M
0N
1O
0f
0g
#2156250
b1000110 !
0"
0&
0(
02
05
08
0O
#2187500
b1000111 !
1"
0&
0(
02
15
b11 7
18
0M
0N
1O
0f
0g
#2218750
b1001000 !
0"
0&
0(
02
05
08
0O
#2250000
b1001001 !
1"
0&
0(
02
15
b100 7
18
0M
0N
1O
0f
0g
#2281250
b1001010 !
0"
0&
0(
02
05
08
0O
#2312500
b1001011 !
1"
0&
0(
02
15
b101 7
18
0M
0N
1O
0f
0g
#2343750
b1001100 !
0"
0&
0(
02
05
08
0O
#2375000
b1001101 !
1"
0&
0(
02
15
b110 7
18
0M
0N
1O
0f
0g
#2406250
b1001110 !
0"
0&
0(
02
05
08
0O
#2437500
b1001111 !
1"
0&
0(
02
15
b111 7
18
0M
0N
1O
0f
0g
#2468750
b1010000 !
0"
0&
0(
02
05
08
0O
#2500000
b1010001 !
1"
1#
0&
0(
02
14
15
b1000 7
18
19
1D
0E
0I
1J
0M
0N
1O
1Q
1]
0^
0b
1c
0f
0g
#2531250
b1010010 !
0"
0&
0(
02
05
08
0O
#2562500
b1010011 !
1"
0&
0(
b0xxxxx /
02
15
b1001 7
18
bzxxxxx >
0D
0E
bzxxxxx F
0J
1M
1N
1O
0]
0^
b0xxxxx _
0c
1f
1g
#2593750
b1010100 !
0"
0&
0(
02
05
08
0O
#2625000
b1010101 !
1"
0&
0(
02
15
b1010 7
18
1M
1N
1O
1f
1g
#2656250
b1010110 !
0"
0&
0(
02
05
08
0O
#2687500
b1010111 !
1"
0&
0(
02
15
b1011 7
18
1M
1N
1O
1f
1g
#2718750
b1011000 !
0"
0&
0(
02
05
08
0O
#2750000
b1011001 !
1"
0&
0(
02
15
b1100 7
18
1M
1N
1O
1f
1g
#2781250
b1011010 !
0"
0&
0(
02
05
08
0O
#2812500
b1011011 !
1"
0&
0(
02
15
b1101 7
18
1M
1N
1O
1f
1g
#2843750
b1011100 !
0"
0&
0(
02
05
08
0O
#2875000
b1011101 !
1"
0&
0(
02
15
b1110 7
18
1M
1N
1O
1f
1g
#2906250
b1011110 !
0"
0&
0(
02
05
08
0O
#2937500
b1011111 !
1"
0&
0(
02
15
b1111 7
18
1M
1N
1O
1f
1g
#2968750
b1100000 !
0"
0&
0(
02
05
08
0O
#3000000
b1100001 !
1"
0#
0&
0(
02
04
15
b0 7
18
09
0D
1E
1I
1K
1M
1N
1O
0Q
0]
1^
1b
1d
1f
1g
#3031250
b1100010 !
0"
0&
0(
02
05
08
0O
#3062500
b1100011 !
1"
0%
0&
0(
02
15
b1 7
18
0D
0E
b100 G
0K
0M
0N
1O
zT
0]
0^
b100 `
0d
0f
0g
#3093750
b1100100 !
0"
0&
0(
02
05
08
0O
#3125000
b1100101 !
1"
0&
0(
02
15
b10 7
18
0M
0N
1O
0f
0g
#3156250
b1100110 !
0"
0&
0(
02
05
08
0O
#3187500
b1100111 !
1"
0&
0(
02
15
b11 7
18
0M
0N
1O
0f
0g
#3218750
b1101000 !
0"
0&
0(
02
05
08
0O
#3250000
b1101001 !
1"
0&
0(
02
15
b100 7
18
0M
0N
1O
0f
0g
#3281250
b1101010 !
0"
0&
0(
02
05
08
0O
#3312500
b1101011 !
1"
0&
0(
02
15
b101 7
18
0M
0N
1O
0f
0g
#3343750
b1101100 !
0"
0&
0(
02
05
08
0O
#3375000
b1101101 !
1"
0&
0(
02
15
b110 7
18
0M
0N
1O
0f
0g
#3406250
b1101110 !
0"
0&
0(
02
05
08
0O
#3437500
b1101111 !
1"
0&
0(
02
15
b111 7
18
0M
0N
1O
0f
0g
#3468750
b1110000 !
0"
0&
0(
02
05
08
0O
#3500000
b1110001 !
1"
1#
0&
0(
02
14
15
b1000 7
18
19
1D
0E
0I
1J
0M
0N
1O
1Q
1]
0^
0b
1c
0f
0g
#3531250
b1110010 !
0"
0&
0(
02
05
08
0O
#3562500
b1110011 !
1"
0&
0(
b0xxxx /
02
15
b1001 7
18
bzxxxx >
0D
0E
bzxxxx F
0J
1M
1N
1O
0]
0^
b0xxxx _
0c
1f
1g
#3593750
b1110100 !
0"
0&
0(
02
05
08
0O
#3625000
b1110101 !
1"
0&
0(
02
15
b1010 7
18
1M
1N
1O
1f
1g
#3656250
b1110110 !
0"
0&
0(
02
05
08
0O
#3687500
b1110111 !
1"
0&
0(
02
15
b1011 7
18
1M
1N
1O
1f
1g
#3718750
b1111000 !
0"
0&
0(
02
05
08
0O
#3750000
b1111001 !
1"
0&
0(
02
15
b1100 7
18
1M
1N
1O
1f
1g
#3781250
b1111010 !
0"
0&
0(
02
05
08
0O
#3812500
b1111011 !
1"
0&
0(
02
15
b1101 7
18
1M
1N
1O
1f
1g
#3843750
b1111100 !
0"
0&
0(
02
05
08
0O
#3875000
b1111101 !
1"
0&
0(
02
15
b1110 7
18
1M
1N
1O
1f
1g
#3906250
b1111110 !
0"
0&
0(
02
05
08
0O
#3937500
b1111111 !
1"
0&
0(
02
15
b1111 7
18
1M
1N
1O
1f
1g
#3968750
b10000000 !
0"
0&
0(
02
05
08
0O
#4000000
b10000001 !
1"
0#
0&
0(
02
04
15
b0 7
18
09
0D
1E
1I
1K
1M
1N
1O
0Q
0]
1^
1b
1d
1f
1g
#4031250
b10000010 !
0"
0&
0(
02
05
08
0O
#4062500
b10000011 !
1"
0%
0&
0(
02
15
b1 7
18
0D
0E
b11 G
0K
0M
0N
1O
zT
0]
0^
b11 `
0d
0f
0g
#4093750
b10000100 !
0"
0&
0(
02
05
08
0O
#4125000
b10000101 !
1"
0&
0(
02
15
b10 7
18
0M
0N
1O
0f
0g
#4156250
b10000110 !
0"
0&
0(
02
05
08
0O
#4187500
b10000111 !
1"
0&
0(
02
15
b11 7
18
0M
0N
1O
0f
0g
#4218750
b10001000 !
0"
0&
0(
02
05
08
0O
#4250000
b10001001 !
1"
0&
0(
02
15
b100 7
18
0M
0N
1O
0f
0g
#4281250
b10001010 !
0"
0&
0(
02
05
08
0O
#4312500
b10001011 !
1"
0&
0(
02
15
b101 7
18
0M
0N
1O
0f
0g
#4343750
b10001100 !
0"
0&
0(
02
05
08
0O
#4375000
b10001101 !
1"
0&
0(
02
15
b110 7
18
0M
0N
1O
0f
0g
#4406250
b10001110 !
0"
0&
0(
02
05
08
0O
#4437500
b10001111 !
1"
0&
0(
02
15
b111 7
18
0M
0N
1O
0f
0g
#4468750
b10010000 !
0"
0&
0(
02
05
08
0O
#4500000
b10010001 !
1"
1#
0&
0(
02
14
15
b1000 7
18
19
1D
0E
0I
1J
0M
0N
1O
1Q
1]
0^
0b
1c
0f
0g
#4531250
b10010010 !
0"
0&
0(
02
05
08
0O
#4562500
b10010011 !
1"
0&
0(
b0xxx /
02
15
b1001 7
18
bzxxx >
0D
0E
bzxxx F
0J
1M
1N
1O
0]
0^
b0xxx _
0c
1f
1g
#4593750
b10010100 !
0"
0&
0(
02
05
08
0O
#4625000
b10010101 !
1"
0&
0(
02
15
b1010 7
18
1M
1N
1O
1f
1g
#4656250
b10010110 !
0"
0&
0(
02
05
08
0O
#4687500
b10010111 !
1"
0&
0(
02
15
b1011 7
18
1M
1N
1O
1f
1g
#4718750
b10011000 !
0"
0&
0(
02
05
08
0O
#4750000
b10011001 !
1"
0&
0(
02
15
b1100 7
18
1M
1N
1O
1f
1g
#4781250
b10011010 !
0"
0&
0(
02
05
08
0O
#4812500
b10011011 !
1"
0&
0(
02
15
b1101 7
18
1M
1N
1O
1f
1g
#4843750
b10011100 !
0"
0&
0(
02
05
08
0O
#4875000
b10011101 !
1"
0&
0(
02
15
b1110 7
18
1M
1N
1O
1f
1g
#4906250
b10011110 !
0"
0&
0(
02
05
08
0O
#4937500
b10011111 !
1"
0&
0(
02
15
b1111 7
18
1M
1N
1O
1f
1g
#4968750
b10100000 !
0"
0&
0(
02
05
08
0O
#5000000
b10100001 !
1"
0#
0&
0(
02
04
15
b0 7
18
09
0D
1E
1I
1K
1M
1N
1O
0Q
0]
1^
1b
1d
1f
1g
#5031250
b10100010 !
0"
0&
0(
02
05
08
0O
#5062500
b10100011 !
1"
0%
0&
0(
02
15
b1 7
18
0D
0E
b10 G
0K
0M
0N
1O
zT
0]
0^
b10 `
0d
0f
0g
#5093750
b10100100 !
0"
0&
0(
02
05
08
0O
#5125000
b10100101 !
1"
0&
0(
02
15
b10 7
18
0M
0N
1O
0f
0g
#5156250
b10100110 !
0"
0&
0(
02
05
08
0O
#5187500
b10100111 !
1"
0&
0(
02
15
b11 7
18
0M
0N
1O
0f
0g
#5218750
b10101000 !
0"
0&
0(
02
05
08
0O
#5250000
b10101001 !
1"
0&
0(
02
15
b100 7
18
0M
0N
1O
0f
0g
#5281250
b10101010 !
0"
0&
0(
02
05
08
0O
#5312500
b10101011 !
1"
0&
0(
02
15
b101 7
18
0M
0N
1O
0f
0g
#5343750
b10101100 !
0"
0&
0(
02
05
08
0O
#5375000
b10101101 !
1"
0&
0(
02
15
b110 7
18
0M
0N
1O
0f
0g
#5406250
b10101110 !
0"
0&
0(
02
05
08
0O
#5437500
b10101111 !
1"
0&
0(
02
15
b111 7
18
0M
0N
1O
0f
0g
#5468750
b10110000 !
0"
0&
0(
02
05
08
0O
#5500000
b10110001 !
1"
1#
0&
0(
02
14
15
b1000 7
18
19
1D
0E
0I
1J
0M
0N
1O
1Q
1]
0^
0b
1c
0f
0g
#5531250
b10110010 !
0"
0&
0(
02
05
08
0O
#5562500
b10110011 !
1"
0&
0(
b0xx /
02
15
b1001 7
18
bzxx >
0D
0E
bzxx F
0J
1M
1N
1O
0]
0^
b0xx _
0c
1f
1g
#5593750
b10110100 !
0"
0&
0(
02
05
08
0O
#5625000
b10110101 !
1"
0&
0(
02
15
b1010 7
18
1M
1N
1O
1f
1g
#5656250
b10110110 !
0"
0&
0(
02
05
08
0O
#5687500
b10110111 !
1"
0&
0(
02
15
b1011 7
18
1M
1N
1O
1f
1g
#5718750
b10111000 !
0"
0&
0(
02
05
08
0O
#5750000
b10111001 !
1"
0&
0(
02
15
b1100 7
18
1M
1N
1O
1f
1g
#5781250
b10111010 !
0"
0&
0(
02
05
08
0O
#5812500
b10111011 !
1"
0&
0(
02
15
b1101 7
18
1M
1N
1O
1f
1g
#5843750
b10111100 !
0"
0&
0(
02
05
08
0O
#5875000
b10111101 !
1"
0&
0(
02
15
b1110 7
18
1M
1N
1O
1f
1g
#5906250
b10111110 !
0"
0&
0(
02
05
08
0O
#5937500
b10111111 !
1"
0&
0(
02
15
b1111 7
18
1M
1N
1O
1f
1g
#5968750
b11000000 !
0"
0&
0(
02
05
08
0O
#6000000
b11000001 !
1"
0#
0&
0(
02
04
15
b0 7
18
09
0D
1E
1I
1K
1M
1N
1O
0Q
0]
1^
1b
1d
1f
1g
#6031250
b11000010 !
0"
0&
0(
02
05
08
0O
#6062500
b11000011 !
1"
0%
0&
0(
02
15
b1 7
18
0D
0E
b1 G
0K
0M
0N
1O
zT
0]
0^
b1 `
0d
0f
0g
#6093750
b11000100 !
0"
0&
0(
02
05
08
0O
#6125000
b11000101 !
1"
0&
0(
02
15
b10 7
18
0M
0N
1O
0f
0g
#6156250
b11000110 !
0"
0&
0(
02
05
08
0O
#6187500
b11000111 !
1"
0&
0(
02
15
b11 7
18
0M
0N
1O
0f
0g
#6218750
b11001000 !
0"
0&
0(
02
05
08
0O
#6250000
b11001001 !
1"
0&
0(
02
15
b100 7
18
0M
0N
1O
0f
0g
#6281250
b11001010 !
0"
0&
0(
02
05
08
0O
#6312500
b11001011 !
1"
0&
0(
02
15
b101 7
18
0M
0N
1O
0f
0g
#6343750
b11001100 !
0"
0&
0(
02
05
08
0O
#6375000
b11001101 !
1"
0&
0(
02
15
b110 7
18
0M
0N
1O
0f
0g
#6406250
b11001110 !
0"
0&
0(
02
05
08
0O
#6437500
b11001111 !
1"
0&
0(
02
15
b111 7
18
0M
0N
1O
0f
0g
#6468750
b11010000 !
0"
0&
0(
02
05
08
0O
#6500000
b11010001 !
1"
1#
0&
0(
02
14
15
b1000 7
18
19
1D
0E
0I
1J
0M
0N
1O
1Q
1]
0^
0b
1c
0f
0g
#6531250
b11010010 !
0"
0&
0(
02
05
08
0O
#6562500
b11010011 !
1"
0&
0(
b0x /
02
15
b1001 7
18
bzx >
0D
0E
bzx F
0J
1M
1N
1O
0]
0^
b0x _
0c
1f
1g
#6593750
b11010100 !
0"
0&
0(
02
05
08
0O
#6625000
b11010101 !
1"
0&
0(
02
15
b1010 7
18
1M
1N
1O
1f
1g
#6656250
b11010110 !
0"
0&
0(
02
05
08
0O
#6687500
b11010111 !
1"
0&
0(
02
15
b1011 7
18
1M
1N
1O
1f
1g
#6718750
b11011000 !
0"
0&
0(
02
05
08
0O
#6750000
b11011001 !
1"
0&
0(
02
15
b1100 7
18
1M
1N
1O
1f
1g
#6781250
b11011010 !
0"
0&
0(
02
05
08
0O
#6812500
b11011011 !
1"
0&
0(
02
15
b1101 7
18
1M
1N
1O
1f
1g
#6843750
b11011100 !
0"
0&
0(
02
05
08
0O
#6875000
b11011101 !
1"
0&
0(
02
15
b1110 7
18
1M
1N
1O
1f
1g
#6906250
b11011110 !
0"
0&
0(
02
05
08
0O
#6937500
b11011111 !
1"
0&
0(
02
15
b1111 7
18
1M
1N
1O
1f
1g
#6968750
b11100000 !
0"
0&
0(
02
05
08
0O
#7000000
b11100001 !
1"
0#
0&
0(
02
04
15
b0 7
18
09
0D
1E
1I
1K
1M
1N
1O
0Q
0]
1^
1b
1d
1f
1g
#7031250
b11100010 !
0"
0&
0(
02
05
08
0O
#7062500
b11100011 !
1"
1%
0&
0(
02
15
b1 7
18
0D
0E
b0 G
0K
0M
0N
1O
zT
1W
0]
0^
b0 `
0d
0f
0g
#7093750
b11100100 !
0"
0&
0(
02
05
08
0O
#7125000
b11100101 !
1"
0&
0(
02
15
b10 7
18
0M
0N
1O
0f
0g
#7156250
b11100110 !
0"
0&
0(
02
05
08
0O
#7187500
b11100111 !
1"
0&
0(
02
15
b11 7
18
0M
0N
1O
0f
0g
#7218750
b11101000 !
0"
0&
0(
02
05
08
0O
#7250000
b11101001 !
1"
0&
0(
02
15
b100 7
18
0M
0N
1O
0f
0g
#7281250
b11101010 !
0"
0&
0(
02
05
08
0O
#7312500
b11101011 !
1"
0&
0(
02
15
b101 7
18
0M
0N
1O
0f
0g
#7343750
b11101100 !
0"
0&
0(
02
05
08
0O
#7375000
b11101101 !
1"
0&
0(
02
15
b110 7
18
0M
0N
1O
0f
0g
#7406250
b11101110 !
0"
0&
0(
02
05
08
0O
#7437500
b11101111 !
1"
0&
0(
02
15
b111 7
18
0M
0N
1O
0f
0g
#7468750
b11110000 !
0"
0&
0(
02
05
08
0O
#7500000
b11110001 !
1"
1#
0&
0(
02
14
15
b1000 7
18
19
1D
0E
0I
1J
0M
0N
1O
1Q
1]
0^
0b
1c
0f
0g
#7531250
b11110010 !
0"
0&
0(
02
05
08
0O
#7562500
b11110011 !
1"
0&
0(
b1 /
02
15
b1001 7
18
bz >
0D
0E
bz F
0J
1M
1N
1O
0]
0^
b1 _
0c
1f
1g
#7593750
b11110100 !
0"
0&
0(
02
05
08
0O
#7625000
b11110101 !
1"
0&
0(
02
15
b1010 7
18
1M
1N
1O
1f
1g
#7656250
b11110110 !
0"
0&
0(
02
05
08
0O
#7687500
b11110111 !
1"
0&
0(
02
15
b1011 7
18
1M
1N
1O
1f
1g
#7718750
b11111000 !
0"
0&
0(
02
05
08
0O
#7750000
b11111001 !
1"
0&
0(
02
15
b1100 7
18
1M
1N
1O
1f
1g
#7781250
b11111010 !
0"
0&
0(
02
05
08
0O
#7812500
b11111011 !
1"
0&
0(
02
15
b1101 7
18
1M
1N
1O
1f
1g
#7843750
b11111100 !
0"
0&
0(
02
05
08
0O
#7875000
b11111101 !
1"
0&
0(
02
15
b1110 7
18
1M
1N
1O
1f
1g
#7906250
b11111110 !
0"
0&
0(
02
05
08
0O
#7937500
b11111111 !
1"
0&
0(
02
15
b1111 7
18
1M
1N
1O
1f
1g
#7968750
b100000000 !
0"
0&
0(
02
05
08
0O
#8000000
b100000001 !
1"
0#
0&
0(
02
04
15
b0 7
18
09
0D
1E
1I
1K
1M
1N
1O
0Q
0]
1^
1b
1d
1f
1g
#8031250
b100000010 !
0"
0&
0(
02
05
08
0O
#8062500
b100000011 !
1"
0#
1$
0%
0&
0(
0*
0+
02
15
b1 7
18
0A
0B
0D
0E
b111 G
b0 H
0K
1L
0M
0N
1O
1S
0T
0W
0Z
0[
0]
0^
b111 `
b0 a
0d
1e
0f
0g
#8093750
b100000100 !
0"
0%
0&
0(
1,
1-
b10 .
b1 0
02
05
08
1;
b10 <
0O
1U
#8125000
b100000101 !
1"
0#
0$
0%
0&
0(
1*
1+
1,
1-
02
15
b10 7
18
1A
1B
0C
b111 H
0L
0M
0N
1O
0S
zT
1Z
1[
0\
b111 a
0e
0f
0g
#8156250
b100000110 !
0"
0&
0(
0,
0-
02
05
08
0;
0O
0U
#8187500
b100000111 !
1"
0&
0(
02
15
b11 7
18
0M
0N
1O
0f
0g
#8218750
b100001000 !
0"
0&
0(
02
05
08
0O
#8250000
b100001001 !
1"
0&
0(
02
15
b100 7
18
0M
0N
1O
0f
0g
#8281250
b100001010 !
0"
0&
0(
02
05
08
0O
#8312500
b100001011 !
1"
0&
0(
02
15
b101 7
18
0M
0N
1O
0f
0g
#8343750
b100001100 !
0"
0&
0(
02
05
08
0O
#8375000
b100001101 !
1"
0&
0(
02
15
b110 7
18
0M
0N
1O
0f
0g
#8406250
b100001110 !
0"
0&
0(
02
05
08
0O
#8437500
b100001111 !
1"
0&
0(
02
15
b111 7
18
0M
0N
1O
0f
0g
#8468750
b100010000 !
0"
0&
0(
02
05
08
0O
#8500000
b100010001 !
1"
1#
0&
0(
02
14
15
b1000 7
18
19
1D
0E
0I
1J
0M
0N
1O
1Q
1]
0^
0b
1c
0f
0g
#8531250
b100010010 !
0"
0&
0(
02
05
08
0O
#8562500
b100010011 !
1"
0&
0(
02
15
b1001 7
18
0D
0E
bz F
0J
1M
1N
1O
0]
0^
b1 _
0c
1f
1g
#8593750
b100010100 !
0"
0&
0(
02
05
08
0O
#8625000
b100010101 !
1"
0&
0(
02
15
b1010 7
18
1M
1N
1O
1f
1g
#8656250
b100010110 !
0"
0&
0(
02
05
08
0O
#8687500
b100010111 !
1"
0&
0(
02
15
b1011 7
18
1M
1N
1O
1f
1g
#8718750
b100011000 !
0"
0&
0(
02
05
08
0O
#8750000
b100011001 !
1"
0&
0(
02
15
b1100 7
18
1M
1N
1O
1f
1g
#8781250
b100011010 !
0"
0&
0(
02
05
08
0O
#8812500
b100011011 !
1"
0&
0(
02
15
b1101 7
18
1M
1N
1O
1f
1g
#8843750
b100011100 !
0"
0&
0(
02
05
08
0O
#8875000
b100011101 !
1"
0&
0(
02
15
b1110 7
18
1M
1N
1O
1f
1g
#8906250
b100011110 !
0"
0&
0(
02
05
08
0O
#8937500
b100011111 !
1"
0&
0(
02
15
b1111 7
18
1M
1N
1O
1f
1g
#8968750
b100100000 !
0"
0&
0(
02
05
08
0O
#9000000
b100100001 !
1"
0#
0&
0(
02
04
15
b0 7
18
09
0D
1E
1I
1K
1M
1N
1O
0Q
0]
1^
1b
1d
1f
1g
#9031250
b100100010 !
0"
0&
0(
02
05
08
0O
#9062500
b100100011 !
1"
0%
0&
0(
02
15
b1 7
18
0D
0E
b110 G
0K
0M
0N
1O
zT
0]
0^
b110 `
0d
0f
0g
#9093750
b100100100 !
0"
0&
0(
02
05
08
0O
