HUB75_testing/.Xil/Vivado-189112-Connors_laptop/hw_ila_data_1/zip_work/waveform.vcd
$date
        2024-Dec-11 03:41:03
$end
$version
        Vivado v2022.2 (64-bit)
$end
$timescale
        1ps
$end
$scope module dut $end
$var reg 2 " hub75_blue_OBUF [1:0] $end
$var reg 2 $ hub75_green_OBUF [1:0] $end
$var reg 5 & hub75_addr_OBUF [4:0] $end
$var reg 2 + hub75_red_OBUF [1:0] $end
$var reg 1 - hub75_latch_OBUF $end
$var reg 1 . _TRIGGER $end
$var reg 1 / _WINDOW $end
$var reg 1 0 _GAP $end
$upscope $end
$enddefinitions $end
#0
$dumpvars
b0 "
b0 $
b11101 &
b0 +
0-
0.
1/
00
$end
#91
1-
#92
0-
#287
1-
#288
0-
#544
b11110 &
#611
1-
#612
0-
#711
1-
#712
0-
#843
1-
#844
0-
#1039
1-
#1040
0-
#1296
b11111 &
#1363
1-
#1364
0-
#1463
1-
#1464
0-
#1595
1-
#1596
0-
#1791
1-
#1792
0-
#2048
b0 &
1.
#2115
1-
#2116
0-
#2215
1-
#2216
0-
#2347
1-
#2348
0-
#2543
1-
#2544
0-
#2800
b1 &
#2867
1-
#2868
0-
#2967
1-
#2968
0-
#3099
1-
#3100
0-
#3295
1-
#3296
0-
#3552
b10 &
#3619
1-
#3620
0-
#3719
1-
#3720
0-
#3851
1-
#3852
0-
#4047
1-
#4048
0-
