HUB75_testing/HUB75_testing.sim/sim_1/behav/xsim/simulate.log
Time resolution is 1 ps
Block Memory Generator module tb1.dut.sync_pdp_ram.buffer_top.inst.\native_mem_module.blk_mem_gen_v8_4_5_inst  is using a behavioral model for simulation which will not precisely model memory collision behavior.
Block Memory Generator module tb1.dut.sync_pdp_ram.buffer_bottom.inst.\native_mem_module.blk_mem_gen_v8_4_5_inst  is using a behavioral model for simulation which will not precisely model memory collision behavior.
66666600
1652,1652,1652
1528,1528,1528
1528,1528,1528
1528,1528,1528
1528,1528,1528
1528,1528,1528
1528,1528,1528
1652,1652,1652
884,884,884
884,884,884
884,884,884
884,884,884
884,884,884
884,884,884
884,884,760
884,1020,760
884,1020,632
884,1020,632
884,1020,632
884,1020,632
884,1020,632
760,1020,760
124,1020,760
0,1020,884
0,1020,884
0,1020,884
0,1020,884
0,1020,884
0,1020,760
0,1020,632
0,1020,508
0,1020,508
0,1020,508
0,1020,508
124,760,632
760,124,760
1020,0,884
1020,0,884
1020,0,884
1020,0,884
1020,0,884
1020,0,760
1020,0,252
1020,0,124
1020,0,124
1020,0,124
1020,0,124
1020,0,124
760,0,252
632,0,760
376,0,884
376,0,884
376,0,884
376,0,884
376,0,884
508,0,760
1528,1528,1652
1528,1528,1528
1528,1528,1528
1528,1528,1528
1528,1528,1528
1528,1528,1528
1528,1528,1528
1528,1528,1528
1528,1528,1528
1528,1528,1528
1528,1528,1528
1528,1528,1528
1528,1528,1528
1528,1528,1528
1528,1528,1528
1652,1652,1652
884,884,884
884,884,884
884,884,884
884,884,884
884,884,884
884,884,884
884,884,760
884,1020,760
884,1020,632
884,1020,632
884,1020,632
884,1020,632
884,1020,632
760,1020,760
124,1020,760
0,1020,884
0,1020,884
0,1020,884
0,1020,884
0,1020,884
0,1020,760
0,1020,632
0,1020,508
0,1020,508
0,1020,508
0,1020,508
124,760,632
760,124,760
1020,0,884
1020,0,884
1020,0,884
1020,0,884
1020,0,884
1020,0,760
1020,0,252
1020,0,124
1020,0,124
1020,0,124
1020,0,124
1020,0,124
760,0,252
632,0,760
376,0,884
376,0,884
376,0,884
376,0,884
376,0,884
508,0,760
1528,1528,1652
1528,1528,1528
1528,1528,1528
1528,1528,1528
1528,1528,1528
1528,1528,1528
1528,1528,1528
1528,1528,1528
1528,1528,1528
1528,1528,1528
1528,1528,1528
1528,1528,1528
1528,1528,1528
1528,1528,1528
1528,1528,1528
1652,1652,1652
884,884,884
884,884,884
884,884,884
884,884,884
884,884,884
884,884,884
884,884,760
884,1020,760
884,1020,632
884,1020,632
884,1020,632
884,1020,632
884,1020,632
760,1020,760
124,1020,760
0,1020,884
0,1020,884
0,1020,884
0,1020,884
0,1020,884
0,1020,760
0,1020,632
0,1020,508
0,1020,508
0,1020,508
0,1020,508
124,760,632
760,124,760
1020,0,884
1020,0,884
1020,0,884
1020,0,884
1020,0,884
1020,0,760
1020,0,252
1020,0,124
1020,0,124
1020,0,124
1020,0,124
1020,0,124
760,0,252
632,0,760
376,0,884
376,0,884
376,0,884
376,0,884
376,0,884
508,0,760
1528,1528,1652
1528,1528,1528
1528,1528,1528
1528,1528,1528
1528,1528,1528
1528,1528,1528
1528,1528,1528
1528,1528,1528
1528,1528,1528
1528,1528,1528
1528,1528,1528
1528,1528,1528
1528,1528,1528
1528,1528,1528
1528,1528,1528
1652,1652,1652
884,884,884
884,884,884
884,884,884
884,884,884
884,884,884
884,884,884
884,884,760
884,1020,760
884,1020,632
884,1020,632
884,1020,632
884,1020,632
884,1020,632
760,1020,760
124,1020,760
0,1020,884
0,1020,884
0,1020,884
0,1020,884
0,1020,884
0,1020,760
0,1020,632
0,1020,508
0,1020,508
0,1020,508
0,1020,508
124,760,632
760,124,760
1020,0,884
1020,0,884
1020,0,884
1020,0,884
1020,0,884
1020,0,760
1020,0,252
1020,0,124
1020,0,124
1020,0,124
1020,0,124
1020,0,124
760,0,252
632,0,760
376,0,884
376,0,884
376,0,884
376,0,884
376,0,884
508,0,760
1528,1528,1652
1528,1528,1528
1528,1528,1528
1528,1528,1528
1528,1528,1528
1528,1528,1528
1528,1528,1528
1528,1528,1528
1528,1528,1528
1528,1528,1528
1528,1528,1528
1528,1528,1528
1528,1528,1528
1528,1528,1528
1528,1528,1528
1652,1652,1652
884,884,884
884,884,884
884,884,884
884,884,884
884,884,884
884,884,884
884,884,760
884,1020,760
884,1020,632
884,1020,632
884,1020,632
884,1020,632
884,1020,632
760,1020,760
124,1020,760
0,1020,884
0,1020,884
0,1020,884
0,1020,884
0,1020,884
0,1020,760
0,1020,632
0,1020,508
0,1020,508
0,1020,508
0,1020,508
124,760,632
760,124,760
1020,0,884
1020,0,884
1020,0,884
1020,0,884
1020,0,884
1020,0,760
1020,0,252
1020,0,124
1020,0,124
1020,0,124
1020,0,124
1020,0,124
760,0,252
632,0,760
376,0,884
376,0,884
376,0,884
376,0,884
376,0,884
508,0,760
1528,1528,1652
1528,1528,1528
1528,1528,1528
1528,1528,1528
1528,1528,1528
1528,1528,1528
1528,1528,1528
1528,1528,1528
1528,1528,1528
1528,1528,1528
1528,1528,1528
1528,1528,1528
1528,1528,1528
1528,1528,1528
1528,1528,1528
1652,1652,1652
884,884,884
884,884,884
884,884,884
884,884,884
884,884,884
884,884,884
884,884,760
884,1020,760
884,1020,632
884,1020,632
884,1020,632
884,1020,632
884,1020,632
760,1020,760
124,1020,760
0,1020,884
0,1020,884
0,1020,884
0,1020,884
0,1020,884
0,1020,760
0,1020,632
0,1020,508
0,1020,508
0,1020,508
0,1020,508
124,760,632
760,124,760
1020,0,884
1020,0,884
1020,0,884
1020,0,884
1020,0,884
1020,0,760
1020,0,252
1020,0,124
1020,0,124
1020,0,124
1020,0,124
1020,0,124
760,0,252
632,0,760
376,0,884
376,0,884
376,0,884
376,0,884
376,0,884
508,0,760
1528,1528,1652
1528,1528,1528
1528,1528,1528
1528,1528,1528
1528,1528,1528
1528,1528,1528
1528,1528,1528
1528,1528,1528
1528,1528,1528
1528,1528,1528
1528,1528,1528
1528,1528,1528
1528,1528,1528
1528,1528,1528
1528,1528,1528
1652,1652,1652
884,884,884
884,884,884
884,884,884
884,884,884
884,884,884
884,884,884
884,884,760
884,1020,760
884,1020,632
884,1020,632
884,1020,632
884,1020,632
884,1020,632
760,1020,760
124,1020,760
0,1020,884
0,1020,884
0,1020,884
0,1020,884
0,1020,884
0,1020,760
0,1020,632
0,1020,508
0,1020,508
0,1020,508
0,1020,508
124,760,632
760,124,760
1020,0,884
1020,0,884
1020,0,884
1020,0,884
1020,0,884
1020,0,760
1020,0,252
1020,0,124
1020,0,124
1020,0,124
1020,0,124
1020,0,124
760,0,252
632,0,760
376,0,884
376,0,884
376,0,884
376,0,884
376,0,884
508,0,760
1528,1528,1652
1528,1528,1528
1528,1528,1528
1528,1528,1528
1528,1528,1528
1528,1528,1528
1528,1528,1528
1528,1528,1528
1528,1528,1528
1528,1528,1528
1528,1528,1528
1528,1528,1528
1528,1528,1528
1528,1528,1528
1528,1528,1528
1652,1652,1652
884,884,884
884,884,884
884,884,884
884,884,884
884,884,884
884,884,884
884,884,760
884,1020,760
884,1020,632
884,1020,632
884,1020,632
884,1020,632
884,1020,632
760,1020,760
124,1020,760
0,1020,884
0,1020,884
0,1020,884
0,1020,884
0,1020,884
0,1020,760
0,1020,632
0,1020,508
0,1020,508
0,1020,508
0,1020,508
124,760,632
760,124,760
1020,0,884
1020,0,884
1020,0,884
1020,0,884
1020,0,884
1020,0,760
1020,0,252
1020,0,124
1020,0,124
1020,0,124
1020,0,124
1020,0,124
760,0,252
632,0,760
376,0,884
376,0,884
376,0,884
376,0,884
376,0,884
508,0,760
1528,1528,1652
1528,1528,1528
1528,1528,1528
1528,1528,1528
1528,1528,1528
1528,1528,1528
1528,1528,1528
1528,1528,1528
1528,1528,1528
1528,1528,1528
1528,1528,1528
1528,1528,1528
1528,1528,1528
1528,1528,1528
1528,1528,1528
1652,1652,1652
884,884,884
884,884,884
884,884,884
884,884,884
884,884,884
884,884,884
884,884,760
884,1020,760
884,1020,632
884,1020,632
884,1020,632
884,1020,632
884,1020,632
760,1020,760
124,1020,760
0,1020,884
0,1020,884
0,1020,884
0,1020,884
0,1020,884
0,1020,760
0,1020,632
0,1020,508
0,1020,508
0,1020,508
0,1020,508
124,760,632
760,124,760
1020,0,884
1020,0,884
1020,0,884
1020,0,884
1020,0,884
1020,0,760
1020,0,252
1020,0,124
1020,0,124
1020,0,124
1020,0,124
1020,0,124
760,0,252
632,0,760
376,0,884
376,0,884
376,0,884
376,0,884
376,0,884
508,0,760
1528,1528,1652
1528,1528,1528
1528,1528,1528
1528,1528,1528
1528,1528,1528
1528,1528,1528
1528,1528,1528
1528,1528,1528
1528,1528,1528
1528,1528,1528
1528,1528,1528
1528,1528,1528
1528,1528,1528
1528,1528,1528
1528,1528,1528
1652,1652,1652
884,884,884
884,884,884
884,884,884
884,884,884
884,884,884
884,884,884
884,884,760
884,1020,760
884,1020,632
884,1020,632
884,1020,632
884,1020,632
884,1020,632
760,1020,760
124,1020,760
0,1020,884
0,1020,884
0,1020,884
0,1020,884
0,1020,884
0,1020,760
0,1020,632
0,1020,508
0,1020,508
0,1020,508
0,1020,508
124,760,632
760,124,760
1020,0,884
1020,0,884
1020,0,884
1020,0,884
1020,0,884
1020,0,760
1020,0,252
1020,0,124
1020,0,124
1020,0,124
1020,0,124
1020,0,124
760,0,252
632,0,760
376,0,884
376,0,884
376,0,884
376,0,884
376,0,884
508,0,760
1528,1528,1652
1528,1528,1528
1528,1528,1528
1528,1528,1528
1528,1528,1528
1528,1528,1528
1528,1528,1528
1528,1528,1528
1528,1528,1528
1528,1528,1528
1528,1528,1528
1528,1528,1528
1528,1528,1528
1528,1528,1528
1528,1528,1528
1652,1652,1652
884,884,884
884,884,884
884,884,884
884,884,884
884,884,884
884,884,884
884,884,760
884,1020,760
884,1020,632
884,1020,632
884,1020,632
884,1020,632
884,1020,632
760,1020,760
124,1020,760
0,1020,884
0,1020,884
0,1020,884
0,1020,884
0,1020,884
0,1020,760
0,1020,632
0,1020,508
0,1020,508
0,1020,508
0,1020,508
124,760,632
760,124,760
1020,0,884
1020,0,884
1020,0,884
1020,0,884
1020,0,884
1020,0,760
1020,0,252
1020,0,124
1020,0,124
1020,0,124
1020,0,124
1020,0,124
760,0,252
632,0,760
376,0,884
376,0,884
376,0,884
376,0,884
376,0,884
508,0,760
1528,1528,1652
1528,1528,1528
1528,1528,1528
1528,1528,1528
1528,1528,1528
1528,1528,1528
1528,1528,1528
1528,1528,1528
1528,1528,1528
1528,1528,1528
1528,1528,1528
1528,1528,1528
1528,1528,1528
1528,1528,1528
1528,1528,1528
1652,1652,1652
884,884,884
884,884,884
884,884,884
884,884,884
884,884,884
884,884,884
884,884,760
884,1020,760
884,1020,632
884,1020,632
884,1020,632
884,1020,632
884,1020,632
760,1020,760
124,1020,760
0,1020,884
0,1020,884
0,1020,884
0,1020,884
0,1020,884
0,1020,760
0,1020,632
0,1020,508
0,1020,508
0,1020,508
0,1020,508
124,760,632
760,124,760
1020,0,884
1020,0,884
1020,0,884
1020,0,884
1020,0,884
1020,0,760
1020,0,252
1020,0,124
1020,0,124
1020,0,124
1020,0,124
1020,0,124
760,0,252
632,0,760
376,0,884
376,0,884
376,0,884
376,0,884
376,0,884
508,0,760
1528,1528,1652
1528,1528,1528
1528,1528,1528
1528,1528,1528
1528,1528,1528
1528,1528,1528
1528,1528,1528
1528,1528,1528
1528,1528,1528
1528,1528,1528
1528,1528,1528
1528,1528,1528
1528,1528,1528
1528,1528,1528
1528,1528,1528
1652,1652,1652
884,884,884
884,884,884
884,884,884
884,884,884
884,884,884
884,884,884
884,884,760
884,1020,760
884,1020,632
884,1020,632
884,1020,632
884,1020,632
884,1020,632
760,1020,760
124,1020,760
0,1020,884
0,1020,884
0,1020,884
0,1020,884
0,1020,884
0,1020,760
0,1020,632
0,1020,508
0,1020,508
0,1020,508
0,1020,508
124,760,632
760,124,760
1020,0,884
1020,0,884
1020,0,884
1020,0,884
1020,0,884
1020,0,760
1020,0,252
1020,0,124
1020,0,124
1020,0,124
1020,0,124
1020,0,124
760,0,252
632,0,760
376,0,884
376,0,884
376,0,884
376,0,884
376,0,884
508,0,760
1528,1528,1652
1528,1528,1528
1528,1528,1528
1528,1528,1528
1528,1528,1528
1528,1528,1528
1528,1528,1528
1528,1528,1528
1528,1528,1528
1528,1528,1528
1528,1528,1528
1528,1528,1528
1528,1528,1528
1528,1528,1528
1528,1528,1528
1652,1652,1652
884,884,884
884,884,884
884,884,884
884,884,884
884,884,884
884,884,884
884,884,760
884,1020,760
884,1020,632
884,1020,632
884,1020,632
884,1020,632
884,1020,632
760,1020,760
124,1020,760
0,1020,884
0,1020,884
0,1020,884
0,1020,884
0,1020,884
0,1020,760
0,1020,632
0,1020,508
0,1020,508
0,1020,508
0,1020,508
124,760,632
760,124,760
1020,0,884
1020,0,884
1020,0,884
1020,0,884
1020,0,884
1020,0,760
1020,0,252
1020,0,124
1020,0,124
1020,0,124
1020,0,124
1020,0,124
760,0,252
632,0,760
376,0,884
376,0,884
376,0,884
376,0,884
376,0,884
508,0,760
1528,1528,1652
1528,1528,1528
1528,1528,1528
1528,1528,1528
1528,1528,1528
1528,1528,1528
1528,1528,1528
1528,1528,1528
1528,1528,1528
1528,1528,1528
1528,1528,1528
1528,1528,1528
1528,1528,1528
1528,1528,1528
1528,1528,1528
1652,1652,1652
884,884,884
884,884,884
884,884,884
884,884,884
884,884,884
884,884,884
884,884,760
884,1020,760
884,1020,632
884,1020,632
884,1020,632
884,1020,632
884,1020,632
760,1020,760
124,1020,760
0,1020,884
0,1020,884
0,1020,884
0,1020,884
0,1020,884
0,1020,760
0,1020,632
0,1020,508
0,1020,508
0,1020,508
0,1020,508
124,760,632
760,124,760
1020,0,884
1020,0,884
1020,0,884
1020,0,884
1020,0,884
1020,0,760
1020,0,252
1020,0,124
1020,0,124
1020,0,124
1020,0,124
1020,0,124
760,0,252
632,0,760
376,0,884
376,0,884
376,0,884
376,0,884
376,0,884
508,0,760
1528,1528,1652
1528,1528,1528
1528,1528,1528
1528,1528,1528
1528,1528,1528
1528,1528,1528
1528,1528,1528
1528,1528,1528
1528,1528,1528
1528,1528,1528
1528,1528,1528
1528,1528,1528
1528,1528,1528
1528,1528,1528
1528,1528,1528
1652,1652,1652
884,884,884
884,884,884
884,884,884
884,884,884
884,884,884
884,884,884
884,884,760
884,1020,760
884,1020,632
884,1020,632
884,1020,632
884,1020,632
884,1020,632
760,1020,760
124,1020,760
0,1020,884
0,1020,884
0,1020,884
0,1020,884
0,1020,884
0,1020,760
0,1020,632
0,1020,508
0,1020,508
0,1020,508
0,1020,508
124,760,632
760,124,760
1020,0,884
1020,0,884
1020,0,884
1020,0,884
1020,0,884
1020,0,760
1020,0,252
1020,0,124
1020,0,124
1020,0,124
1020,0,124
1020,0,124
760,0,252
632,0,760
376,0,884
376,0,884
376,0,884
376,0,884
376,0,884
508,0,760
1528,1528,1652
1528,1528,1528
1528,1528,1528
1528,1528,1528
1528,1528,1528
1528,1528,1528
1528,1528,1528
1528,1528,1528
1528,1528,1528
1528,1528,1528
1528,1528,1528
1528,1528,1528
1528,1528,1528
1528,1528,1528
1528,1528,1528
1652,1652,1652
884,884,884
884,884,884
884,884,884
884,884,884
884,884,884
884,884,884
884,884,760
884,1020,760
884,1020,632
884,1020,632
884,1020,632
884,1020,632
884,1020,632
760,1020,760
124,1020,760
0,1020,884
0,1020,884
0,1020,884
0,1020,884
0,1020,884
0,1020,760
0,1020,632
0,1020,508
0,1020,508
0,1020,508
0,1020,508
124,760,632
760,124,760
1020,0,884
1020,0,884
1020,0,884
1020,0,884
1020,0,884
1020,0,760
1020,0,252
1020,0,124
1020,0,124
1020,0,124
1020,0,124
1020,0,124
760,0,252
632,0,760
376,0,884
376,0,884
376,0,884
376,0,884
376,0,884
508,0,760
1528,1528,1652
1528,1528,1528
1528,1528,1528
1528,1528,1528
1528,1528,1528
1528,1528,1528
1528,1528,1528
1528,1528,1528
1528,1528,1528
1528,1528,1528
1528,1528,1528
1528,1528,1528
1528,1528,1528
1528,1528,1528
1528,1528,1528
1652,1652,1652
884,884,884
884,884,884
884,884,884
884,884,884
884,884,884
884,884,884
884,884,760
884,1020,760
884,1020,632
884,1020,632
884,1020,632
884,1020,632
884,1020,632
760,1020,760
124,1020,760
0,1020,884
0,1020,884
0,1020,884
0,1020,884
0,1020,884
0,1020,760
0,1020,632
0,1020,508
0,1020,508
0,1020,508
0,1020,508
124,760,632
760,124,760
1020,0,884
1020,0,884
1020,0,884
1020,0,884
1020,0,884
1020,0,760
1020,0,252
1020,0,124
1020,0,124
1020,0,124
1020,0,124
1020,0,124
760,0,252
632,0,760
376,0,884
376,0,884
376,0,884
376,0,884
376,0,884
508,0,760
1528,1528,1652
1528,1528,1528
1528,1528,1528
1528,1528,1528
1528,1528,1528
1528,1528,1528
1528,1528,1528
1528,1528,1528
1528,1528,1528
1528,1528,1528
1528,1528,1528
1528,1528,1528
1528,1528,1528
1528,1528,1528
1528,1528,1528
1652,1652,1652
884,884,884
884,884,884
884,884,884
884,884,884
884,884,884
884,884,884
884,884,760
884,1020,760
884,1020,632
884,1020,632
884,1020,632
884,1020,632
884,1020,632
760,1020,760
124,1020,760
0,1020,884
0,1020,884
0,1020,884
0,1020,884
0,1020,884
0,1020,760
0,1020,632
0,1020,508
0,1020,508
0,1020,508
0,1020,508
124,760,632
760,124,760
1020,0,884
1020,0,884
1020,0,884
1020,0,884
1020,0,884
1020,0,760
1020,0,252
1020,0,124
1020,0,124
1020,0,124
1020,0,124
1020,0,124
760,0,252
632,0,760
376,0,884
376,0,884
376,0,884
376,0,884
376,0,884
508,0,760
1528,1528,1652
1528,1528,1528
1528,1528,1528
1528,1528,1528
1528,1528,1528
1528,1528,1528
1528,1528,1528
1528,1528,1528
1528,1528,1528
1528,1528,1528
1528,1528,1528
1528,1528,1528
1528,1528,1528
1528,1528,1528
1528,1528,1528
1652,1652,1652
884,884,884
884,884,884
884,884,884
884,884,884
884,884,884
884,884,884
884,884,760
884,1020,760
884,1020,632
884,1020,632
884,1020,632
884,1020,632
884,1020,632
760,1020,760
124,1020,760
0,1020,884
0,1020,884
0,1020,884
0,1020,884
0,1020,884
0,1020,760
0,1020,632
0,1020,508
0,1020,508
0,1020,508
0,1020,508
124,760,632
760,124,760
1020,0,884
1020,0,884
1020,0,884
1020,0,884
1020,0,884
1020,0,760
1020,0,252
1020,0,124
1020,0,124
1020,0,124
1020,0,124
1020,0,124
760,0,252
632,0,760
376,0,884
376,0,884
376,0,884
376,0,884
376,0,884
508,0,760
1528,1528,1652
1528,1528,1528
1528,1528,1528
1528,1528,1528
1528,1528,1528
1528,1528,1528
1528,1528,1528
1528,1528,1528
1528,1528,1528
1528,1528,1528
1528,1528,1528
1528,1528,1528
1528,1528,1528
1528,1528,1528
1528,1528,1528
1652,1652,1652
884,884,884
884,884,884
884,884,884
884,884,884
884,884,884
884,884,884
884,884,760
884,1020,760
884,1020,632
884,1020,632
884,1020,632
884,1020,632
884,1020,632
760,1020,760
124,1020,760
0,1020,884
0,1020,884
0,1020,884
0,1020,884
0,1020,884
0,1020,760
0,1020,632
0,1020,508
0,1020,508
0,1020,508
0,1020,508
124,760,632
760,124,760
1020,0,884
1020,0,884
1020,0,884
1020,0,884
1020,0,884
1020,0,760
1020,0,252
1020,0,124
1020,0,124
1020,0,124
1020,0,124
1020,0,124
760,0,252
632,0,760
376,0,884
376,0,884
376,0,884
376,0,884
376,0,884
508,0,760
1528,1528,1652
1528,1528,1528
1528,1528,1528
1528,1528,1528
1528,1528,1528
1528,1528,1528
1528,1528,1528
1528,1528,1528
1528,1528,1528
1528,1528,1528
1528,1528,1528
1528,1528,1528
1528,1528,1528
1528,1528,1528
1528,1528,1528
1652,1652,1652
884,884,884
884,884,884
884,884,884
884,884,884
884,884,884
884,884,884
884,884,760
884,1020,760
884,1020,632
884,1020,632
884,1020,632
884,1020,632
884,1020,632
760,1020,760
124,1020,760
0,1020,884
0,1020,884
0,1020,884
0,1020,884
0,1020,884
0,1020,760
0,1020,632
0,1020,508
0,1020,508
0,1020,508
0,1020,508
124,760,632
760,124,760
1020,0,884
1020,0,884
1020,0,884
1020,0,884
1020,0,884
1020,0,760
1020,0,252
1020,0,124
1020,0,124
1020,0,124
1020,0,124
1020,0,124
760,0,252
632,0,760
376,0,884
376,0,884
376,0,884
376,0,884
376,0,884
508,0,760
1528,1528,1652
1528,1528,1528
1528,1528,1528
1528,1528,1528
1528,1528,1528
1528,1528,1528
1528,1528,1528
1528,1528,1528
1528,1528,1528
1528,1528,1528
1528,1528,1528
1528,1528,1528
1528,1528,1528
1528,1528,1528
1528,1528,1528
1652,1652,1652
884,884,884
884,884,884
884,884,884
884,884,884
884,884,884
884,884,884
884,884,760
884,1020,760
884,1020,632
884,1020,632
884,1020,632
884,1020,632
884,1020,632
760,1020,760
124,1020,760
0,1020,884
0,1020,884
0,1020,884
0,1020,884
0,1020,884
0,1020,760
0,1020,632
0,1020,508
0,1020,508
0,1020,508
0,1020,508
124,760,632
760,124,760
1020,0,884
1020,0,884
1020,0,884
1020,0,884
1020,0,884
1020,0,760
1020,0,252
1020,0,124
1020,0,124
1020,0,124
1020,0,124
1020,0,124
760,0,252
632,0,760
376,0,884
376,0,884
376,0,884
376,0,884
376,0,884
508,0,760
1528,1528,1652
1528,1528,1528
1528,1528,1528
1528,1528,1528
1528,1528,1528
1528,1528,1528
1528,1528,1528
1528,1528,1528
1528,1528,1528
1528,1528,1528
1528,1528,1528
1528,1528,1528
1528,1528,1528
1528,1528,1528
1528,1528,1528
1652,1652,1652
884,884,884
884,884,884
884,884,884
884,884,884
884,884,884
884,884,884
884,884,760
884,1020,760
884,1020,632
884,1020,632
884,1020,632
884,1020,632
884,1020,632
760,1020,760
124,1020,760
0,1020,884
0,1020,884
0,1020,884
0,1020,884
0,1020,884
0,1020,760
0,1020,632
0,1020,508
0,1020,508
0,1020,508
0,1020,508
124,760,632
760,124,760
1020,0,884
1020,0,884
1020,0,884
1020,0,884
1020,0,884
1020,0,760
1020,0,252
1020,0,124
1020,0,124
1020,0,124
1020,0,124
1020,0,124
760,0,252
632,0,760
376,0,884
376,0,884
376,0,884
376,0,884
376,0,884
508,0,760
1528,1528,1652
1528,1528,1528
1528,1528,1528
1528,1528,1528
1528,1528,1528
1528,1528,1528
1528,1528,1528
1528,1528,1528
1528,1528,1528
1528,1528,1528
1528,1528,1528
1528,1528,1528
1528,1528,1528
1528,1528,1528
1528,1528,1528
1652,1652,1652
884,884,884
884,884,884
884,884,884
884,884,884
884,884,884
884,884,884
884,884,760
884,1020,760
884,1020,632
884,1020,632
884,1020,632
884,1020,632
884,1020,632
760,1020,760
124,1020,760
0,1020,884
0,1020,884
0,1020,884
0,1020,884
0,1020,884
0,1020,760
0,1020,632
0,1020,508
0,1020,508
0,1020,508
0,1020,508
124,760,632
760,124,760
1020,0,884
1020,0,884
1020,0,884
1020,0,884
1020,0,884
1020,0,760
1020,0,252
1020,0,124
1020,0,124
1020,0,124
1020,0,124
1020,0,124
760,0,252
632,0,760
376,0,884
376,0,884
376,0,884
376,0,884
376,0,884
508,0,760
1528,1528,1652
1528,1528,1528
1528,1528,1528
1528,1528,1528
1528,1528,1528
1528,1528,1528
1528,1528,1528
1528,1528,1528
1528,1528,1528
1528,1528,1528
1528,1528,1528
1528,1528,1528
1528,1528,1528
1528,1528,1528
1528,1528,1528
1652,1652,1652
884,884,884
884,884,884
884,884,884
884,884,884
884,884,884
884,884,884
884,884,760
884,1020,760
884,1020,632
884,1020,632
884,1020,632
884,1020,632
884,1020,632
760,1020,760
124,1020,760
0,1020,884
0,1020,884
0,1020,884
0,1020,884
0,1020,884
0,1020,760
0,1020,632
0,1020,508
0,1020,508
0,1020,508
0,1020,508
124,760,632
760,124,760
1020,0,884
1020,0,884
1020,0,884
1020,0,884
1020,0,884
1020,0,760
1020,0,252
1020,0,124
1020,0,124
1020,0,124
1020,0,124
1020,0,124
760,0,252
632,0,760
376,0,884
376,0,884
376,0,884
376,0,884
376,0,884
508,0,760
1528,1528,1652
1528,1528,1528
1528,1528,1528
1528,1528,1528
1528,1528,1528
1528,1528,1528
1528,1528,1528
1528,1528,1528
1528,1528,1528
1528,1528,1528
1528,1528,1528
1528,1528,1528
1528,1528,1528
1528,1528,1528
1528,1528,1528
1652,1652,1652
884,884,884
884,884,884
884,884,884
884,884,884
884,884,884
884,884,884
884,884,760
884,1020,760
884,1020,632
884,1020,632
884,1020,632
884,1020,632
884,1020,632
760,1020,760
124,1020,760
0,1020,884
0,1020,884
0,1020,884
0,1020,884
0,1020,884
0,1020,760
0,1020,632
0,1020,508
0,1020,508
0,1020,508
0,1020,508
124,760,632
760,124,760
1020,0,884
1020,0,884
1020,0,884
1020,0,884
1020,0,884
1020,0,760
1020,0,252
1020,0,124
1020,0,124
1020,0,124
1020,0,124
1020,0,124
760,0,252
632,0,760
376,0,884
376,0,884
376,0,884
376,0,884
376,0,884
508,0,760
1528,1528,1652
1528,1528,1528
1528,1528,1528
1528,1528,1528
1528,1528,1528
1528,1528,1528
1528,1528,1528
1528,1528,1528
1528,1528,1528
1528,1528,1528
1528,1528,1528
1528,1528,1528
1528,1528,1528
1528,1528,1528
1528,1528,1528
1652,1652,1652
884,884,884
884,884,884
884,884,884
884,884,884
884,884,884
884,884,884
884,884,760
884,1020,760
884,1020,632
884,1020,632
884,1020,632
884,1020,632
884,1020,632
760,1020,760
124,1020,760
0,1020,884
0,1020,884
0,1020,884
0,1020,884
0,1020,884
0,1020,760
0,1020,632
0,1020,508
0,1020,508
0,1020,508
0,1020,508
124,760,632
760,124,760
1020,0,884
1020,0,884
1020,0,884
1020,0,884
1020,0,884
1020,0,760
1020,0,252
1020,0,124
1020,0,124
1020,0,124
1020,0,124
1020,0,124
760,0,252
632,0,760
376,0,884
376,0,884
376,0,884
376,0,884
376,0,884
508,0,760
1528,1528,1652
1528,1528,1528
1528,1528,1528
1528,1528,1528
1528,1528,1528
1528,1528,1528
1528,1528,1528
1528,1528,1528
1528,1528,1528
1528,1528,1528
1528,1528,1528
1528,1528,1528
1528,1528,1528
1528,1528,1528
1528,1528,1528
1652,1652,1652
884,884,884
884,884,884
884,884,884
884,884,884
884,884,884
884,884,884
884,884,760
884,1020,760
884,1020,632
884,1020,632
884,1020,632
884,1020,632
884,1020,632
760,1020,760
124,1020,760
0,1020,884
0,1020,884
0,1020,884
0,1020,884
0,1020,884
0,1020,760
0,1020,632
0,1020,508
0,1020,508
0,1020,508
0,1020,508
124,760,632
760,124,760
1020,0,884
1020,0,884
1020,0,884
1020,0,884
1020,0,884
1020,0,760
1020,0,252
1020,0,124
1020,0,124
1020,0,124
1020,0,124
1020,0,124
760,0,252
632,0,760
376,0,884
376,0,884
376,0,884
376,0,884
376,0,884
508,0,760
1528,1528,1652
1528,1528,1528
1528,1528,1528
1528,1528,1528
1528,1528,1528
1528,1528,1528
1528,1528,1528
1528,1528,1528
1528,1528,1528
1528,1528,1528
1528,1528,1528
1528,1528,1528
1528,1528,1528
1528,1528,1528
1528,1528,1528
1652,1652,1652
884,884,884
884,884,884
884,884,884
884,884,884
884,884,884
884,884,884
884,884,760
884,1020,760
884,1020,632
884,1020,632
884,1020,632
884,1020,632
884,1020,632
760,1020,760
124,1020,760
0,1020,884
0,1020,884
0,1020,884
0,1020,884
0,1020,884
0,1020,760
0,1020,632
0,1020,508
0,1020,508
0,1020,508
0,1020,508
124,760,632
760,124,760
1020,0,884
1020,0,884
1020,0,884
1020,0,884
1020,0,884
1020,0,760
1020,0,252
1020,0,124
1020,0,124
1020,0,124
1020,0,124
1020,0,124
760,0,252
632,0,760
376,0,884
376,0,884
376,0,884
376,0,884
376,0,884
508,0,760
1528,1528,1652
1528,1528,1528
1528,1528,1528
1528,1528,1528
1528,1528,1528
1528,1528,1528
1528,1528,1528
1528,1528,1528
1528,1528,1528
1528,1528,1528
1528,1528,1528
1528,1528,1528
1528,1528,1528
1528,1528,1528
1528,1528,1528
1652,1652,1652
884,884,884
884,884,884
884,884,884
884,884,884
884,884,884
884,884,884
884,884,760
884,1020,760
884,1020,632
884,1020,632
884,1020,632
884,1020,632
884,1020,632
760,1020,760
124,1020,760
0,1020,884
0,1020,884
0,1020,884
0,1020,884
0,1020,884
0,1020,760
0,1020,632
0,1020,508
0,1020,508
0,1020,508
0,1020,508
124,760,632
760,124,760
1020,0,884
1020,0,884
1020,0,884
1020,0,884
1020,0,884
1020,0,760
1020,0,252
1020,0,124
1020,0,124
1020,0,124
1020,0,124
1020,0,124
760,0,252
632,0,760
376,0,884
376,0,884
376,0,884
376,0,884
376,0,884
508,0,760
1528,1528,1652
1528,1528,1528
1528,1528,1528
1528,1528,1528
1528,1528,1528
1528,1528,1528
1528,1528,1528
1528,1528,1528
1528,1528,1528
1528,1528,1528
1528,1528,1528
1528,1528,1528
1528,1528,1528
1528,1528,1528
1528,1528,1528
1652,1652,1652
884,884,884
884,884,884
884,884,884
884,884,884
884,884,884
884,884,884
884,884,760
884,1020,760
884,1020,632
884,1020,632
884,1020,632
884,1020,632
884,1020,632
760,1020,760
124,1020,760
0,1020,884
0,1020,884
0,1020,884
0,1020,884
0,1020,884
0,1020,760
0,1020,632
0,1020,508
0,1020,508
0,1020,508
0,1020,508
124,760,632
760,124,760
1020,0,884
1020,0,884
1020,0,884
1020,0,884
1020,0,884
1020,0,760
1020,0,252
1020,0,124
1020,0,124
1020,0,124
1020,0,124
1020,0,124
760,0,252
632,0,760
376,0,884
376,0,884
376,0,884
376,0,884
376,0,884
508,0,760
1528,1528,1652
1528,1528,1528
