HUB75_testing/.Xil/Vivado-37716-Connors_laptop/hw_ila_data_1/zip_work/waveform.vcd
$date
        2024-Dec-12 21:32:48
$end
$version
        Vivado v2022.2 (64-bit)
$end
$timescale
        1ps
$end
$scope module dut $end
$var reg 12 " frame_counter [11:0] $end
$var reg 5 . hub75_addr_OBUF [4:0] $end
$var reg 1 3 clk_divided $end
$var reg 1 4 dut/display_frame_done $end
$var reg 1 5 start_signal_IBUF $end
$var reg 1 6 _TRIGGER $end
$var reg 1 7 _WINDOW $end
$var reg 1 8 _GAP $end
$upscope $end
$enddefinitions $end
#0
$dumpvars
b10001100011 "
b11101 .
13
04
15
16
17
08
$end
#1
b10111001000 "
b0 .
#2
b110111000000 "
#3
b110111001000 "
#5
b110101000000 "
#6
b111110110110 "
05
#7
b111110110111 "
#8
b111110111000 "
#9
b111110111001 "
#10
b111110111010 "
#11
b111110111011 "
#12
b111110111100 "
#13
b111110111101 "
#14
b111110111110 "
#15
b111110111111 "
#16
b111111000000 "
#17
b111111000001 "
#18
b111111000010 "
#19
b111111000011 "
#20
b111111000100 "
#21
b111111000101 "
#22
b111111000110 "
#23
b111111000111 "
#24
b111111001000 "
#25
b111111001001 "
#26
b111111001010 "
#27
b111111001011 "
#28
b111111001100 "
#29
b111111001101 "
#30
b111111001110 "
#31
b111111001111 "
#32
b111111010000 "
#33
b111111010001 "
#34
b111111010010 "
#35
b111111010011 "
#36
b111111010100 "
#37
b111111010101 "
#38
b111111010110 "
#39
b111111010111 "
#40
b111111011000 "
#41
b111111011001 "
#42
b111111011010 "
#43
b111111011011 "
#44
b111111011100 "
#45
b111111011101 "
#46
b111111011110 "
#47
b111111011111 "
#48
b111111100000 "
#49
b111111100001 "
#50
b111111100010 "
#51
b111111100011 "
#52
b111111100100 "
#53
b111111100101 "
#54
b111111100110 "
#55
b111111100111 "
#56
b111111101000 "
#57
b111111101001 "
#58
b111111101010 "
#59
b111111101011 "
#60
b111111101100 "
#61
b111111101101 "
#62
b111111101110 "
#63
b111111101111 "
#64
b111111110000 "
#65
b111111110001 "
#66
b111111110010 "
#67
b111111110011 "
#68
b111111110100 "
#69
b111111110101 "
#70
b111111110110 "
#71
b111111110111 "
#72
b111111111000 "
#73
b111111111001 "
#74
b111111111010 "
#75
b111111111011 "
#76
b111111111100 "
#77
b111111111101 "
#78
b111111111110 "
#79
b111111111111 "
#80
b0 "
#81
b1 "
#82
b10 "
#83
b11 "
#84
b100 "
#85
b101 "
#86
b110 "
#87
b111 "
#88
b1000 "
#89
b1001 "
#90
b1010 "
#91
b1011 "
#92
b1100 "
#93
b1101 "
#94
b1110 "
